[gd_scene load_steps=6 format=2]

[ext_resource path="res://fonts/PermanentMarker-Regular.ttf" type="DynamicFontData" id=1]
[ext_resource path="res://src/UI/Credits.gd" type="Script" id=2]
[ext_resource path="res://ui_theme.tres" type="Theme" id=4]
[ext_resource path="res://src/UI/SwitchSceneButton.gd" type="Script" id=8]

[sub_resource type="DynamicFont" id=1]
size = 48
outline_size = 3
outline_color = Color( 0, 0, 0, 1 )
font_data = ExtResource( 1 )

[node name="ControlsScreen" type="Node2D"]
script = ExtResource( 2 )

[node name="Control" type="Control" parent="."]
margin_right = 1024.0
margin_bottom = 600.0
theme = ExtResource( 4 )
__meta__ = {
"_edit_use_anchors_": false
}

[node name="Header" type="Label" parent="Control"]
anchor_right = 1.0
anchor_bottom = 1.0
margin_top = 11.0
custom_fonts/font = SubResource( 1 )
text = "Credits"
align = 1

[node name="Label" type="Label" parent="Control"]
margin_left = 32.0
margin_top = 108.0
margin_right = 1024.0
margin_bottom = 364.0
text = "A game is designed by Yngvarr and Syudzius.
Programming by Yngvarr.
Art by Syudzius.
Sound effects by Syudzius and Yngvarr.

The game uses following assets:
* A music track \"Tech Space\" ©2020 Joshua McLean (https://joshua-mclean.itch.io)
* Sound effects by gadzooks and Sedi via freesound.org
* Artworks from Seph Carissa's music album \"Pixel Prophecy’s Ludum Dare Post
Mortems\" via sephcarissa.bandcamp.com
* Fonts \"Permanent Marker\" by Font Diner and \"Noto Sans\" by Google
via fonts.google.com"

[node name="Back" type="Button" parent="."]
margin_left = 887.668
margin_top = 543.28
margin_right = 1003.67
margin_bottom = 583.28
theme = ExtResource( 4 )
text = "Back"
script = ExtResource( 8 )
__meta__ = {
"_edit_use_anchors_": false
}
up_next = "res://scenes/StartScreen.tscn"
